{
  "log": {
    "version": "1.2",
    "creator": {
      "name": "WebInspector",
      "version": "537.36"
    },
    "pages": [
      {
        "startedDateTime": "2013-06-15T21:05:36.512Z",
        "id": "page_1",
        "title": "https://github.com/mxcl/homebrew/pull/3937",
        "pageTimings": {
          "onContentLoad": 1459,
          "onLoad": 1813
        }
      },
      {
        "startedDateTime": "2013-06-15T21:06:30.809Z",
        "id": "page_2",
        "title": "http://stackoverflow.com/",
        "pageTimings": {
          "onContentLoad": 3078,
          "onLoad": 3307
        }
      },
      {
        "startedDateTime": "2013-06-15T21:06:38.747Z",
        "id": "page_3",
        "title": "http://stackoverflow.com/questions/tagged/python",
        "pageTimings": {
          "onContentLoad": 1025,
          "onLoad": 1140
        }
      },
      {
        "startedDateTime": "2013-06-15T21:06:49.947Z",
        "id": "page_4",
        "title": "http://stackoverflow.com/questions/100003/what-is-a-metaclass-in-python",
        "pageTimings": {
          "onContentLoad": 396,
          "onLoad": 884
        }
      }
    ],
    "entries": [
      {
        "startedDateTime": "2013-06-15T21:05:36.267Z",
        "time": 160,
        "request": {
          "method": "GET",
          "url": "https://www.google.com/url?sa=t&rct=j&q=&esrc=s&source=web&cd=2&ved=0CDcQFjAB&url=https%3A%2F%2Fgithub.com%2Fmxcl%2Fhomebrew%2Fpull%2F3937&ei=xtS8UabLPOnI0QGd3YHgCg&usg=AFQjCNFfAmmyO01-IpSDHmnkA4vryXOWIg&sig2=pmT-lofqH6L6BJmBZtMcQw&bvm=bv.47883778,d.dmQ",
          "httpVersion": "HTTP/1.1",
          "headers": [
            {
              "name": ":host",
              "value": "www.google.com"
            },
            {
              "name": "accept-encoding",
              "value": "gzip,deflate,sdch"
            },
            {
              "name": "accept-language",
              "value": "en-US,en;q=0.8"
            },
            {
              "name": "user-agent",
              "value": "Mozilla/5.0 (Macintosh; Intel Mac OS X 10_8_3) AppleWebKit/537.36 (KHTML, like Gecko) Chrome/27.0.1453.110 Safari/537.36"
            },
            {
              "name": ":path",
              "value": "/url?sa=t&rct=j&q=&esrc=s&source=web&cd=2&ved=0CDcQFjAB&url=https%3A%2F%2Fgithub.com%2Fmxcl%2Fhomebrew%2Fpull%2F3937&ei=xtS8UabLPOnI0QGd3YHgCg&usg=AFQjCNFfAmmyO01-IpSDHmnkA4vryXOWIg&sig2=pmT-lofqH6L6BJmBZtMcQw&bvm=bv.47883778,d.dmQ"
            },
            {
              "name": "accept",
              "value": "text/html,application/xhtml+xml,application/xml;q=0.9,*/*;q=0.8"
            },
            {
              "name": ":version",
              "value": "HTTP/1.1"
            },
            {
              "name": "referer",
              "value": "https://www.google.com/search?q=swig+homebrew&oq=swig+homebrew&aqs=chrome.0.57j0l2j62.1862j0&sourceid=chrome&ie=UTF-8"
            },
            {
              "name": "cookie",
              "value": "HSID=ARuCNWQEwkZvzjvCk; SSID=Arm_rUx3wnOvnGrVM; APISID=-8ytd17TImCAtn7z/ATW_Z2A-88AR201SG; SAPISID=Aayof8NBgz1AxG0K/ABtItSrbufazgxjOQ; NID=67=eSfy-FFAEjNQeVIsXCf7neLgRJ6L6q5vUV5Ens5Kz3tMSM6VdH-cIZ57YZAwRbOcJkRZd8ABKWspmAHxupDqi0efgWj-TF0yLQ4pTdAZrvm2T1IRUL858okknSeWCYMKIadueuJB-ak_YwvWjKoQFIQS2lY0yCUfwgklgcSBCXYFn4L31DJqNAiU9Nxgzq-B1Q6b4cztZ5Irh3__YZFKO307P7HrCe2t3A; PREF=ID=7969ff13ec2018ad:U=7379909372039e1f:FF=0:LD=en:NR=10:TM=1370344085:LM=1371329737:L=0T8bas9-5u7y8Bw:GM=1:SG=1:S=II0UVID4s6zq3y_s; SID=DQAAAM8AAABkMVveM28l7SRUrHd9xxz3PThy4NcGfh_pMUm0Gxw2SjEu5hK9Cd2c6vIYxojjdUNakgdSQM-wfAjgqJ8TSnhkPYZ1P6Sgx3FetIQyowYD2nvYf1BRYYFZIxi5ylBOlwEI4XMCptykblK5eUhcf9WPu-kaw0jSPfA1hjWc9RzSc7RDjDsx-BoWv4pJAXc2Q3L308a3ghKHZuVgTgrY7EsCQZTcQeyjNtvJMRkK0u9X0xmh3Xunme-c55ub_uqHcf5wH3jfQofZ8U1v8i2ZgM_7"
            },
            {
              "name": ":scheme",
              "value": "https"
            },
            {
              "name": "x-chrome-variations",
              "value": "CIK2yQEIlrbJAQiftskBCKa2yQEIqLbJAQiptskBCL22yQEIwbbJAQjzg8oBCJiEygEIh4XKAQjChcoBCNGFygE="
            },
            {
              "name": ":method",
              "value": "GET"
            }
          ],
          "queryString": [
            {
              "name": "sa",
              "value": "t"
            },
            {
              "name": "rct",
              "value": "j"
            },
            {
              "name": "q",
              "value": ""
            },
            {
              "name": "esrc",
              "value": "s"
            },
            {
              "name": "source",
              "value": "web"
            },
            {
              "name": "cd",
              "value": "2"
            },
            {
              "name": "ved",
              "value": "0CDcQFjAB"
            },
            {
              "name": "url",
              "value": "https%3A%2F%2Fgithub.com%2Fmxcl%2Fhomebrew%2Fpull%2F3937"
            },
            {
              "name": "ei",
              "value": "xtS8UabLPOnI0QGd3YHgCg"
            },
            {
              "name": "usg",
              "value": "AFQjCNFfAmmyO01-IpSDHmnkA4vryXOWIg"
            },
            {
              "name": "sig2",
              "value": "pmT-lofqH6L6BJmBZtMcQw"
            },
            {
              "name": "bvm",
              "value": "bv.47883778,d.dmQ"
            }
          ],
          "cookies": [
            {
              "name": "HSID",
              "value": "ARuCNWQEwkZvzjvCk",
              "expires": null,
              "httpOnly": false,
              "secure": false
            },
            {
              "name": "SSID",
              "value": "Arm_rUx3wnOvnGrVM",
              "expires": null,
              "httpOnly": false,
              "secure": false
            },
            {
              "name": "APISID",
              "value": "-8ytd17TImCAtn7z/ATW_Z2A-88AR201SG",
              "expires": null,
              "httpOnly": false,
              "secure": false
            },
            {
              "name": "SAPISID",
              "value": "Aayof8NBgz1AxG0K/ABtItSrbufazgxjOQ",
              "expires": null,
              "httpOnly": false,
              "secure": false
            },
            {
              "name": "NID",
              "value": "67=eSfy-FFAEjNQeVIsXCf7neLgRJ6L6q5vUV5Ens5Kz3tMSM6VdH-cIZ57YZAwRbOcJkRZd8ABKWspmAHxupDqi0efgWj-TF0yLQ4pTdAZrvm2T1IRUL858okknSeWCYMKIadueuJB-ak_YwvWjKoQFIQS2lY0yCUfwgklgcSBCXYFn4L31DJqNAiU9Nxgzq-B1Q6b4cztZ5Irh3__YZFKO307P7HrCe2t3A",
              "expires": null,
              "httpOnly": false,
              "secure": false
            },
            {
              "name": "PREF",
              "value": "ID=7969ff13ec2018ad:U=7379909372039e1f:FF=0:LD=en:NR=10:TM=1370344085:LM=1371329737:L=0T8bas9-5u7y8Bw:GM=1:SG=1:S=II0UVID4s6zq3y_s",
              "expires": null,
              "httpOnly": false,
              "secure": false
            },
            {
              "name": "SID",
              "value": "DQAAAM8AAABkMVveM28l7SRUrHd9xxz3PThy4NcGfh_pMUm0Gxw2SjEu5hK9Cd2c6vIYxojjdUNakgdSQM-wfAjgqJ8TSnhkPYZ1P6Sgx3FetIQyowYD2nvYf1BRYYFZIxi5ylBOlwEI4XMCptykblK5eUhcf9WPu-kaw0jSPfA1hjWc9RzSc7RDjDsx-BoWv4pJAXc2Q3L308a3ghKHZuVgTgrY7EsCQZTcQeyjNtvJMRkK0u9X0xmh3Xunme-c55ub_uqHcf5wH3jfQofZ8U1v8i2ZgM_7",
              "expires": null,
              "httpOnly": false,
              "secure": false
            }
          ],
          "headersSize": 1905,
          "bodySize": 0
        },
        "response": {
          "status": 200,
          "statusText": "OK",
          "httpVersion": "HTTP/1.1",
          "headers": [
            {
              "name": "pragma",
              "value": "no-cache"
            },
            {
              "name": "date",
              "value": "Sat, 15 Jun 2013 21:05:36 GMT"
            },
            {
              "name": "content-encoding",
              "value": "gzip"
            },
            {
              "name": "server",
              "value": "gws"
            },
            {
              "name": "version",
              "value": "HTTP/1.1"
            },
            {
              "name": "x-frame-options",
              "value": "ALLOWALL"
            },
            {
              "name": "content-type",
              "value": "text/html; charset=UTF-8"
            },
            {
              "name": "status",
              "value": "200 OK"
            },
            {
              "name": "cache-control",
              "value": "no-cache, must-revalidate"
            },
            {
              "name": "content-length",
              "value": "288"
            },
            {
              "name": "x-xss-protection",
              "value": "1; mode=block"
            },
            {
              "name": "expires",
              "value": "Fri, 01 Jan 1990 00:00:00 GMT"
            }
          ],
          "cookies": [],
          "content": {
            "size": 462,
            "mimeType": "text/html",
            "compression": -9
          },
          "redirectURL": "",
          "headersSize": 349,
          "bodySize": 471
        },
        "cache": {},
        "timings": {
          "blocked": 0,
          "dns": -1,
          "connect": 97,
          "send": -44,
          "wait": 59,
          "receive": 2,
          "ssl": 45
        }
      },
      {
        "startedDateTime": "2013-06-15T21:05:36.512Z",
        "time": 697,
        "request": {
          "method": "GET",
          "url": "https://github.com/mxcl/homebrew/pull/3937",
          "httpVersion": "HTTP/1.1",
          "headers": [
            {
              "name": "Accept-Encoding",
              "value": "gzip,deflate,sdch"
            },
            {
              "name": "Host",
              "value": "github.com"
            },
            {
              "name": "Accept-Language",
              "value": "en-US,en;q=0.8"
            },
            {
              "name": "User-Agent",
              "value": "Mozilla/5.0 (Macintosh; Intel Mac OS X 10_8_3) AppleWebKit/537.36 (KHTML, like Gecko) Chrome/27.0.1453.110 Safari/537.36"
            },
            {
              "name": "Accept",
              "value": "text/html,application/xhtml+xml,application/xml;q=0.9,*/*;q=0.8"
            },
            {
              "name": "Referer",
              "value": "https://www.google.com/"
            },
            {
              "name": "Cookie",
